[
    {
        "id": 1072790,
        "original_language": "en",
        "original_title": "Anyone But You",
        "overview": "After an amazing first date, Bea and Ben’s fiery attraction turns ice cold — until they find themselves unexpectedly reunited at a destination wedding in Australia. So they do what any two mature adults would do: pretend to be a couple.",
        "popularity": 2086.66,
        "poster_path": "/yRt7MGBElkLQOYRvLTT1b3B1rcp.jpg",
        "release_date": "2023-12-21",
        "title": "Anyone But You",
        "video": false,
        "vote_average": 6.898,
        "vote_count": 573
    },
    {
        "id": 969492,
        "original_language": "en",
        "original_title": "Land of Bad",
        "overview": "When a Delta Force special ops mission goes terribly wrong, Air Force drone pilot Reaper has 48 hours to remedy what has devolved into a wild rescue operation. With no weapons and no communication other than the drone above, the ground mission suddenly becomes a full-scale battle when the team is discovered by the enemy.",
        "popularity": 1296.744,
        "poster_path": "/bIeEMMvfzgbMBtYaEWtxrFnt6Vo.jpg",
        "release_date": "2024-01-25",
        "title": "Land of Bad",
        "video": false,
        "vote_average": 7.3,
        "vote_count": 109
    },
    {
        "id": 940551,
        "original_language": "en",
        "original_title": "Migration",
        "overview": "After a migrating duck family alights on their pond with thrilling tales of far-flung places, the Mallard family embarks on a family road trip, from New England, to New York City, to tropical Jamaica.",
        "popularity": 1044.512,
        "poster_path": "/ldfCF9RhR40mppkzmftxapaHeTo.jpg",
        "release_date": "2023-12-06",
        "title": "Migration",
        "video": false,
        "vote_average": 7.641,
        "vote_count": 722
    },
    {
        "id": 933131,
        "original_language": "ko",
        "original_title": "황야",
        "overview": "After a deadly earthquake turns Seoul into a lawless badland, a fearless huntsman springs into action to rescue a teenager abducted by a mad doctor.",
        "popularity": 930.495,
        "poster_path": "/24CL0ySodCF8bcm38xtBeHzHp7W.jpg",
        "release_date": "2024-01-25",
        "title": "Badland Hunters",
        "video": false,
        "vote_average": 6.778,
        "vote_count": 471
    },
    {
        "id": 787699,
        "original_language": "en",
        "original_title": "Wonka",
        "overview": "Willy Wonka – chock-full of ideas and determined to change the world one delectable bite at a time – is proof that the best things in life begin with a dream, and if you’re lucky enough to meet Willy Wonka, anything is possible.",
        "popularity": 882.598,
        "poster_path": "/qhb1qOilapbapxWQn9jtRCMwXJF.jpg",
        "release_date": "2023-12-06",
        "title": "Wonka",
        "video": false,
        "vote_average": 7.226,
        "vote_count": 2242
    },
    {
        "id": 1212073,
        "original_language": "de",
        "original_title": "60 Minuten",
        "overview": "Desperate to keep custody of his daughter, a mixed martial arts fighter abandons a big match and races across Berlin to attend her birthday party.",
        "popularity": 792.798,
        "poster_path": "/jojfbnIHGsRpodIood3OQoqA45Y.jpg",
        "release_date": "2024-01-19",
        "title": "Sixty Minutes",
        "video": false,
        "vote_average": 6.87,
        "vote_count": 395
    },
    {
        "id": 1026436,
        "original_language": "en",
        "original_title": "Miller's Girl",
        "overview": "A precocious young writer becomes involved with her high school creative writing teacher in a dark coming-of-age drama that examines the blurred lines of emotional connectivity between professor and protégé.",
        "popularity": 701.622,
        "poster_path": "/wKCKKur7LyGFaUHmNhvy7FhIjmC.jpg",
        "release_date": "2024-01-18",
        "title": "Miller's Girl",
        "video": false,
        "vote_average": 6.5,
        "vote_count": 81
    },
    {
        "id": 1096197,
        "original_language": "en",
        "original_title": "No Way Up",
        "overview": "Characters from different backgrounds are thrown together when the plane they're travelling on crashes into the Pacific Ocean. A nightmare fight for survival ensues with the air supply running out and dangers creeping in from all sides.",
        "popularity": 742.766,
        "poster_path": "/rieMzC6JJoMVbsaUv6Rzj0fR7Px.jpg",
        "release_date": "2024-01-18",
        "title": "No Way Up",
        "video": false,
        "vote_average": 5.511,
        "vote_count": 45
    },
    {
        "id": 634492,
        "original_language": "en",
        "original_title": "Madame Web",
        "overview": "Forced to confront revelations about her past, paramedic Cassandra Webb forges a relationship with three young women destined for powerful futures...if they can all survive a deadly present.",
        "popularity": 441.913,
        "poster_path": "/rULWuutDcN5NvtiZi4FRPzRYWSh.jpg",
        "release_date": "2024-02-14",
        "title": "Madame Web",
        "video": false,
        "vote_average": 5.329,
        "vote_count": 249
    }]
   
       












      {"dates": {"maximum": "2024-02-28", "minimum": "2024-01-17"}, "page": 1, "results": [{"adult": false, "backdrop_path": "/nTPFkLUARmo1bYHfkfdNpRKgEOs.jpg", "genre_ids": [Array], "id": 1072790, "original_language": "en", "original_title": "Anyone But You", "overview": "After an amazing first date, Bea and Ben’s fiery attraction turns ice cold — until they find themselves unexpectedly reunited at a destination wedding in Australia. So they do what any two mature adults would do: pretend to be a couple.", "popularity": 2086.66, "poster_path": "/yRt7MGBElkLQOYRvLTT1b3B1rcp.jpg", "release_date": "2023-12-21", "title": "Anyone But You", "video": false, "vote_average": 6.898, "vote_count": 573}, {"adult": false, "backdrop_path": "/oBIQDKcqNxKckjugtmzpIIOgoc4.jpg", "genre_ids": [Array], "id": 969492, "original_language": "en", "original_title": "Land of Bad", "overview": "When a Delta Force special ops mission goes terribly wrong, Air Force drone pilot Reaper has 48 hours to remedy what has devolved into a wild rescue operation. With no weapons and no communication other than the drone above, the ground mission suddenly becomes a full-scale battle when the team is discovered by the enemy.", "popularity": 1296.744, "poster_path": "/bIeEMMvfzgbMBtYaEWtxrFnt6Vo.jpg", "release_date": "2024-01-25", "title": "Land of Bad", "video": false, "vote_average": 7.3, "vote_count": 109}, {"adult": false, "backdrop_path": "/meyhnvssZOPPjud4F1CjOb4snET.jpg", "genre_ids": [Array], "id": 940551, "original_language": "en", "original_title": "Migration", "overview": "After a migrating duck family alights on their pond with thrilling tales of far-flung places, the Mallard family embarks on a family road trip, from New England, to New York City, to tropical Jamaica.", "popularity": 1044.512, "poster_path": "/ldfCF9RhR40mppkzmftxapaHeTo.jpg", "release_date": "2023-12-06", "title": "Migration", "video": false, "vote_average": 7.641, "vote_count": 722}, {"adult": false, "backdrop_path": "/pWsD91G2R1Da3AKM3ymr3UoIfRb.jpg", "genre_ids": [Array], "id": 933131, "original_language": "ko", "original_title": "황야", "overview": "After a deadly earthquake turns Seoul into a lawless badland, a fearless huntsman springs into action to rescue a teenager abducted by a mad doctor.", "popularity": 930.495, "poster_path": "/24CL0ySodCF8bcm38xtBeHzHp7W.jpg", "release_date": "2024-01-25", "title": "Badland Hunters", "video": false, "vote_average": 6.778, "vote_count": 471}, {"adult": false, "backdrop_path": "/yyFc8Iclt2jxPmLztbP617xXllT.jpg", "genre_ids": [Array], "id": 787699, "original_language": "en", "original_title": "Wonka", "overview": "Willy Wonka – chock-full of ideas and determined to change the world one delectable bite at a time – is proof that the best things in life begin with a dream, and if you’re lucky enough to meet Willy Wonka, anything is possible.", "popularity": 882.598, "poster_path": "/qhb1qOilapbapxWQn9jtRCMwXJF.jpg", "release_date": "2023-12-06", "title": "Wonka", "video": false, "vote_average": 7.226, "vote_count": 2242}, {"adult": false, "backdrop_path": "/unvtbkgxh47BewQ8pENvdOdme0r.jpg", "genre_ids": [Array], "id": 1212073, "original_language": "de", "original_title": "60 Minuten", "overview": "Desperate to keep custody of his daughter, a mixed martial arts fighter abandons a big match and races across Berlin to attend her birthday party.", "popularity": 792.798, "poster_path": "/jojfbnIHGsRpodIood3OQoqA45Y.jpg", "release_date": "2024-01-19", "title": "Sixty Minutes", "video": false, "vote_average": 6.87, "vote_count": 395}, {"adult": false, "backdrop_path": "/uF6ah2oXklyw3gU9ByWLKJ0tyfg.jpg", "genre_ids": [Array], "id": 1026436, "original_language": "en", "original_title": "Miller's Girl", "overview": "A precocious young writer becomes involved with her high school creative writing teacher in a dark coming-of-age drama that examines the blurred lines of emotional connectivity between professor and protégé.", "popularity": 701.622, "poster_path": "/wKCKKur7LyGFaUHmNhvy7FhIjmC.jpg", "release_date": "2024-01-18", "title": "Miller's Girl", "video": false, "vote_average": 6.5, "vote_count": 81}, {"adult": false, "backdrop_path": "/4woSOUD0equAYzvwhWBHIJDCM88.jpg", "genre_ids": [Array], "id": 1096197, "original_language": "en", "original_title": "No Way Up", "overview": "Characters from different backgrounds are thrown together when the plane they're travelling on crashes into the Pacific Ocean. A nightmare fight for survival ensues with the air supply running out and dangers creeping in from all sides.", "popularity": 742.766, "poster_path": "/rieMzC6JJoMVbsaUv6Rzj0fR7Px.jpg", "release_date": "2024-01-18", "title": "No Way Up", "video": false, "vote_average": 5.511, "vote_count": 45}, {"adult": false, "backdrop_path": "/uUiIGztTrfDhPdAFJpr6m4UBMAd.jpg", "genre_ids": [Array], "id": 634492, "original_language": "en", "original_title": "Madame Web", "overview": "Forced to confront revelations about her past, paramedic Cassandra Webb forges a relationship with three young women destined for powerful futures...if they can all survive a deadly present.", "popularity": 441.913, "poster_path": "/rULWuutDcN5NvtiZi4FRPzRYWSh.jpg", "release_date": "2024-02-14", "title": "Madame Web", "video": false, "vote_average": 5.329, "vote_count": 249}, {"adult": false, "backdrop_path": "/4MCKNAc6AbWjEsM2h9Xc29owo4z.jpg", "genre_ids": [Array], "id": 866398, "original_language": "en", "original_title": "The Beekeeper", "overview": "One man’s campaign for vengeance takes on national stakes after he is revealed to be a former operative of a powerful and clandestine organization known as Beekeepers.", "popularity": 496.456, "poster_path": "/A7EByudX0eOzlkQ2FIbogzyazm2.jpg", "release_date": "2024-01-10", "title": "The Beekeeper", "video": false, "vote_average": 7.352, "vote_count": 1333}, {"adult": false, "backdrop_path": "/yl2GfeCaPoxChcGyM5p7vYp1CKS.jpg", "genre_ids": [Array], "id": 848187, "original_language": "en", "original_title": "Role Play", "overview": "Emma has a wonderful husband and two kids in the suburbs of New Jersey – she also has a secret life as an assassin for hire – a secret that her husband David discovers when the couple decide to spice up their marriage with a little role play.", "popularity": 501.304, "poster_path": "/7MhXiTmTl16LwXNPbWCmqxj7UxH.jpg", "release_date": "2024-01-04", "title": "Role Play", "video": false, "vote_average": 6.034, "vote_count": 369}, {"adult": false, "backdrop_path": "/cIHFTyIf0LjRzjSnwtCAGzwTOKK.jpg", "genre_ids": [Array], "id": 931642, "original_language": "en", "original_title": "Lights Out", "overview": "A drifting ex-soldier turns underground fighter with the help of a just-released ex-con, pitting him against corrupt cops and hired killers now gunning for him and all those he cares about.", "popularity": 470.567, "poster_path": "/usDIBB0hOqLM8wMSGistfqxjukZ.jpg", "release_date": "2024-02-16", "title": "Lights Out", "video": false, "vote_average": 6.7, "vote_count": 25}, {"adult": false, "backdrop_path": "/uhUO7vQQKvCTfQWubOt5MAKokbL.jpg", "genre_ids": [Array], "id": 693134, "original_language": "en", "original_title": "Dune: Part Two", "overview": "Follow the mythic journey of Paul Atreides as he unites with Chani and the Fremen while on a path of revenge against the conspirators who destroyed his family. Facing a choice between the love of his life and the fate of the known universe, Paul endeavors to prevent a terrible future only he can foresee.", "popularity": 461.426, "poster_path": "/8b8R8l88Qje9dn9OE8PY05Nxl1X.jpg", "release_date": "2024-02-27", "title": "Dune: Part Two", "video": false, "vote_average": 8.7, "vote_count": 14}, {"adult": false, "backdrop_path": "/zLj0peaxy5y2SlC6wNIQ4V0pfqg.jpg", "genre_ids": [Array], "id": 1139829, "original_language": "en", "original_title": "Orion and the Dark", "overview": "A boy with an active imagination faces his fears on an unforgettable journey through the night with his new friend: a giant, smiling creature named Dark.", "popularity": 457.268, "poster_path": "/k6iHs4daxm0RQqFQsE8oE5wWJjj.jpg", "release_date": "2024-02-02", "title": "Orion and the Dark", "video": false, "vote_average": 6.6, "vote_count": 253}, {"adult": false, "backdrop_path": "/47SVqaO02doJ06tOmrjiWDkwU3T.jpg", "genre_ids": [Array], "id": 927107, "original_language": "en", "original_title": "The Bricklayer", "overview": "Someone is blackmailing the CIA by assassinating foreign journalists and making it look like the agency is responsible. As the world begins to unite against the U.S., the CIA must lure its most brilliant – and rebellious – operative out of retirement, forcing him to confront his checkered past while unraveling an international conspiracy.", "popularity": 416.954, "poster_path": "/36pYugctLa70NmwMEgXTR1G31Kq.jpg", "release_date": "2023-12-14", "title": "The Bricklayer", "video": false, "vote_average": 6.102, "vote_count": 123}, {"adult": false, "backdrop_path": "/zIYROrkHJPYB3VTiW1L9QVgaQO.jpg", "genre_ids": [Array], "id": 897087, "original_language": "en", "original_title": "Freelance", "overview": "An ex-special forces operative takes a job to provide security for a journalist as she interviews a dictator, but a military coup breaks out in the middle of the interview, they are forced to escape into the jungle where they must survive.", "popularity": 432.494, "poster_path": "/7Bd4EUOqQDKZXA6Od5gkfzRNb0.jpg", "release_date": "2023-10-05", "title": "Freelance", "video": false, "vote_average": 6.554, "vote_count": 575}, {"adult": false, "backdrop_path": "/jYEW5xZkZk2WTrdbMGAPFuBqbDc.jpg", "genre_ids": [Array], "id": 438631, "original_language": "en", "original_title": "Dune", "overview": "Paul Atreides, a brilliant and gifted young man born into a great destiny beyond his understanding, must travel to the most dangerous planet in the universe to ensure the future of his family and his people. As malevolent forces explode into conflict over the planet's exclusive supply of the most precious resource in existence-a commodity capable of unlocking humanity's greatest potential-only those who can conquer their fear will survive.", "popularity": 491.096, "poster_path": "/d5NXSklXo0qyIYkgV94XAgMIckC.jpg", "release_date": "2021-09-15", "title": "Dune", "video": false, "vote_average": 7.788, "vote_count": 10150}, {"adult": false, "backdrop_path": "/pRmF6VBsRnvWCbLB9P80UvZFMyK.jpg", "genre_ids": [Array], "id": 1014590, "original_language": "en", "original_title": "Upgraded", "overview": "Ana is an ambitious intern dreaming of a career in the art world while trying to impress her demanding boss Claire. When she's upgraded to first class on a work trip, she meets handsome Will, who mistakes Ana for her boss– a white lie that sets off a glamorous chain of events, romance and opportunity, until her fib threatens to surface.", "popularity": 344.183, "poster_path": "/eYsdP5QffklSZMXJMy295xTHKmt.jpg", "release_date": "2024-02-07", "title": "Upgraded", "video": false, "vote_average": 7.397, "vote_count": 385}, {"adult": false, "backdrop_path": "/bQS43HSLZzMjZkcHJz4fGc7fNdz.jpg", "genre_ids": [Array], "id": 792307, "original_language": "en", "original_title": "Poor Things", "overview": "Brought back to life by an unorthodox scientist, a young woman runs off with a debauched lawyer on a whirlwind adventure across the continents. Free from the prejudices of her times, she grows steadfast in her purpose to stand for equality and liberation.", "popularity": 340.794, "poster_path": "/kCGlIMHnOm8JPXq3rXM6c5wMxcT.jpg", "release_date": "2023-12-07", "title": "Poor Things", "video": false, "vote_average": 8.1, "vote_count": 1329}, {"adult": false, "backdrop_path": "/bq9FpkTw9I3s1cSRuZxQibM2xOx.jpg", "genre_ids": [Array], "id": 467244, "original_language": "en", "original_title": "The Zone of Interest", "overview": "The commandant of Auschwitz, Rudolf Höss, and his wife Hedwig, strive to build a dream life for their family in a house and garden next to the camp.", "popularity": 367.598, "poster_path": "/AbFtI353N2Pggl5TxfsI2VtpUt8.jpg", "release_date": "2023-12-15", "title": "The Zone of Interest", "video": false, "vote_average": 7.341, "vote_count": 323}], "total_pages": 177, "total_results": 3540} Data

 {"dates": {"maximum": "2024-02-28", "minimum": "2024-01-17"}, "page": 1, "results": [{"adult": false, "backdrop_path": "/nTPFkLUARmo1bYHfkfdNpRKgEOs.jpg", "genre_ids": [Array], "id": 1072790, "original_language": "en", "original_title": "Anyone But You", "overview": "After an amazing first date, Bea and Ben’s fiery attraction turns ice cold — until they find themselves unexpectedly reunited at a destination wedding in Australia. So they do what any two mature adults would do: pretend to be a couple.", "popularity": 2086.66, "poster_path": "/yRt7MGBElkLQOYRvLTT1b3B1rcp.jpg", "release_date": "2023-12-21", "title": "Anyone But You", "video": false, "vote_average": 6.898, "vote_count": 573}, {"adult": false, "backdrop_path": "/oBIQDKcqNxKckjugtmzpIIOgoc4.jpg", "genre_ids": [Array], "id": 969492, "original_language": "en", "original_title": "Land of Bad", "overview": "When a Delta Force special ops mission goes terribly wrong, Air Force drone pilot Reaper has 48 hours to remedy what has devolved into a wild rescue operation. With no weapons and no communication other than the drone above, the ground mission suddenly becomes a full-scale battle when the team is discovered by the enemy.", "popularity": 1296.744, "poster_path": "/bIeEMMvfzgbMBtYaEWtxrFnt6Vo.jpg", "release_date": "2024-01-25", "title": "Land of Bad", "video": false, "vote_average": 7.3, "vote_count": 109}, {"adult": false, "backdrop_path": "/meyhnvssZOPPjud4F1CjOb4snET.jpg", "genre_ids": [Array], "id": 940551, "original_language": "en", "original_title": "Migration", "overview": "After a migrating duck family alights on their pond with thrilling tales of far-flung places, the Mallard family embarks on a family road trip, from New England, to New York City, to tropical Jamaica.", "popularity": 1044.512, "poster_path": "/ldfCF9RhR40mppkzmftxapaHeTo.jpg", "release_date": "2023-12-06", "title": "Migration", "video": false, "vote_average": 7.641, "vote_count": 722}, {"adult": false, "backdrop_path": "/pWsD91G2R1Da3AKM3ymr3UoIfRb.jpg", "genre_ids": [Array], "id": 933131, "original_language": "ko", "original_title": "황야", "overview": "After a deadly earthquake turns Seoul into a lawless badland, a fearless huntsman springs into action to rescue a teenager abducted by a mad doctor.", "popularity": 930.495, "poster_path": "/24CL0ySodCF8bcm38xtBeHzHp7W.jpg", "release_date": "2024-01-25", "title": "Badland Hunters", "video": false, "vote_average": 6.778, "vote_count": 471}, {"adult": false, "backdrop_path": "/yyFc8Iclt2jxPmLztbP617xXllT.jpg", "genre_ids": [Array], "id": 787699, "original_language": "en", "original_title": "Wonka", "overview": "Willy Wonka – chock-full of ideas and determined to change the world one delectable bite at a time – is proof that the best things in life begin with a dream, and if you’re lucky enough to meet Willy Wonka, anything is possible.", "popularity": 882.598, "poster_path": "/qhb1qOilapbapxWQn9jtRCMwXJF.jpg", "release_date": "2023-12-06", "title": "Wonka", "video": false, "vote_average": 7.226, "vote_count": 2242}, {"adult": false, "backdrop_path": "/unvtbkgxh47BewQ8pENvdOdme0r.jpg", "genre_ids": [Array], "id": 1212073, "original_language": "de", "original_title": "60 Minuten", "overview": "Desperate to keep custody of his daughter, a mixed martial arts fighter abandons a big match and races across Berlin to attend her birthday party.", "popularity": 792.798, "poster_path": "/jojfbnIHGsRpodIood3OQoqA45Y.jpg", "release_date": "2024-01-19", "title": "Sixty Minutes", "video": false, "vote_average": 6.87, "vote_count": 395}, {"adult": false, "backdrop_path": "/uF6ah2oXklyw3gU9ByWLKJ0tyfg.jpg", "genre_ids": [Array], "id": 1026436, "original_language": "en", "original_title": "Miller's Girl", "overview": "A precocious young writer becomes involved with her high school creative writing teacher in a dark coming-of-age drama that examines the blurred lines of emotional connectivity between professor and protégé.", "popularity": 701.622, "poster_path": "/wKCKKur7LyGFaUHmNhvy7FhIjmC.jpg", "release_date": "2024-01-18", "title": "Miller's Girl", "video": false, "vote_average": 6.5, "vote_count": 81}, {"adult": false, "backdrop_path": "/4woSOUD0equAYzvwhWBHIJDCM88.jpg", "genre_ids": [Array], "id": 1096197, "original_language": "en", "original_title": "No Way Up", "overview": "Characters from different backgrounds are thrown together when the plane they're travelling on crashes into the Pacific Ocean. A nightmare fight for survival ensues with the air supply running out and dangers creeping in from all sides.", "popularity": 742.766, "poster_path": "/rieMzC6JJoMVbsaUv6Rzj0fR7Px.jpg", "release_date": "2024-01-18", "title": "No Way Up", "video": false, "vote_average": 5.511, "vote_count": 45}, {"adult": false, "backdrop_path": "/uUiIGztTrfDhPdAFJpr6m4UBMAd.jpg", "genre_ids": [Array], "id": 634492, "original_language": "en", "original_title": "Madame Web", "overview": "Forced to confront revelations about her past, paramedic Cassandra Webb forges a relationship with three young women destined for powerful futures...if they can all survive a deadly present.", "popularity": 441.913, "poster_path": "/rULWuutDcN5NvtiZi4FRPzRYWSh.jpg", "release_date": "2024-02-14", "title": "Madame Web", "video": false, "vote_average": 5.329, "vote_count": 249}, {"adult": false, "backdrop_path": "/4MCKNAc6AbWjEsM2h9Xc29owo4z.jpg", "genre_ids": [Array], "id": 866398, "original_language": "en", "original_title": "The Beekeeper", "overview": "One man’s campaign for vengeance takes on national stakes after he is revealed to be a former operative of a powerful and clandestine organization known as Beekeepers.", "popularity": 496.456, "poster_path": "/A7EByudX0eOzlkQ2FIbogzyazm2.jpg", "release_date": "2024-01-10", "title": "The Beekeeper", "video": false, "vote_average": 7.352, "vote_count": 1333}, {"adult": false, "backdrop_path": "/yl2GfeCaPoxChcGyM5p7vYp1CKS.jpg", "genre_ids": [Array], "id": 848187, "original_language": "en", "original_title": "Role Play", "overview": "Emma has a wonderful husband and two kids in the suburbs of New Jersey – she also has a secret life as an assassin for hire – a secret that her husband David discovers when the couple decide to spice up their marriage with a little role play.", "popularity": 501.304, "poster_path": "/7MhXiTmTl16LwXNPbWCmqxj7UxH.jpg", "release_date": "2024-01-04", "title": "Role Play", "video": false, "vote_average": 6.034, "vote_count": 369}, {"adult": false, "backdrop_path": "/cIHFTyIf0LjRzjSnwtCAGzwTOKK.jpg", "genre_ids": [Array], "id": 931642, "original_language": "en", "original_title": "Lights Out", "overview": "A drifting ex-soldier turns underground fighter with the help of a just-released ex-con, pitting him against corrupt cops and hired killers now gunning for him and all those he cares about.", "popularity": 470.567, "poster_path": "/usDIBB0hOqLM8wMSGistfqxjukZ.jpg", "release_date": "2024-02-16", "title": "Lights Out", "video": false, "vote_average": 6.7, "vote_count": 25}, {"adult": false, "backdrop_path": "/uhUO7vQQKvCTfQWubOt5MAKokbL.jpg", "genre_ids": [Array], "id": 693134, "original_language": "en", "original_title": "Dune: Part Two", "overview": "Follow the mythic journey of Paul Atreides as he unites with Chani and the Fremen while on a path of revenge against the conspirators who destroyed his family. Facing a choice between the love of his life and the fate of the known universe, Paul endeavors to prevent a terrible future only he can foresee.", "popularity": 461.426, "poster_path": "/8b8R8l88Qje9dn9OE8PY05Nxl1X.jpg", "release_date": "2024-02-27", "title": "Dune: Part Two", "video": false, "vote_average": 8.7, "vote_count": 14}, {"adult": false, "backdrop_path": "/zLj0peaxy5y2SlC6wNIQ4V0pfqg.jpg", "genre_ids": [Array], "id": 1139829, "original_language": "en", "original_title": "Orion and the Dark", "overview": "A boy with an active imagination faces his fears on an unforgettable journey through the night with his new friend: a giant, smiling creature named Dark.", "popularity": 457.268, "poster_path": "/k6iHs4daxm0RQqFQsE8oE5wWJjj.jpg", "release_date": "2024-02-02", "title": "Orion and the Dark", "video": false, "vote_average": 6.6, "vote_count": 253}, {"adult": false, "backdrop_path": "/47SVqaO02doJ06tOmrjiWDkwU3T.jpg", "genre_ids": [Array], "id": 927107, "original_language": "en", "original_title": "The Bricklayer", "overview": "Someone is blackmailing the CIA by assassinating foreign journalists and making it look like the agency is responsible. As the world begins to unite against the U.S., the CIA must lure its most brilliant – and rebellious – operative out of retirement, forcing him to confront his checkered past while unraveling an international conspiracy.", "popularity": 416.954, "poster_path": "/36pYugctLa70NmwMEgXTR1G31Kq.jpg", "release_date": "2023-12-14", "title": "The Bricklayer", "video": false, "vote_average": 6.102, "vote_count": 123}, {"adult": false, "backdrop_path": "/zIYROrkHJPYB3VTiW1L9QVgaQO.jpg", "genre_ids": [Array], "id": 897087, "original_language": "en", "original_title": "Freelance", "overview": "An ex-special forces operative takes a job to provide security for a journalist as she interviews a dictator, but a military coup breaks out in the middle of the interview, they are forced to escape into the jungle where they must survive.", "popularity": 432.494, "poster_path": "/7Bd4EUOqQDKZXA6Od5gkfzRNb0.jpg", "release_date": "2023-10-05", "title": "Freelance", "video": false, "vote_average": 6.554, "vote_count": 575}, {"adult": false, "backdrop_path": "/jYEW5xZkZk2WTrdbMGAPFuBqbDc.jpg", "genre_ids": [Array], "id": 438631, "original_language": "en", "original_title": "Dune", "overview": "Paul Atreides, a brilliant and gifted young man born into a great destiny beyond his understanding, must travel to the most dangerous planet in the universe to ensure the future of his family and his people. As malevolent forces explode into conflict over the planet's exclusive supply of the most precious resource in existence-a commodity capable of unlocking humanity's greatest potential-only those who can conquer their fear will survive.", "popularity": 491.096, "poster_path": "/d5NXSklXo0qyIYkgV94XAgMIckC.jpg", "release_date": "2021-09-15", "title": "Dune", "video": false, "vote_average": 7.788, "vote_count": 10150}, {"adult": false, "backdrop_path": "/pRmF6VBsRnvWCbLB9P80UvZFMyK.jpg", "genre_ids": [Array], "id": 1014590, "original_language": "en", "original_title": "Upgraded", "overview": "Ana is an ambitious intern dreaming of a career in the art world while trying to impress her demanding boss Claire. When she's upgraded to first class on a work trip, she meets handsome Will, who mistakes Ana for her boss– a white lie that sets off a glamorous chain of events, romance and opportunity, until her fib threatens to surface.", "popularity": 344.183, "poster_path": "/eYsdP5QffklSZMXJMy295xTHKmt.jpg", "release_date": "2024-02-07", "title": "Upgraded", "video": false, "vote_average": 7.397, "vote_count": 385}, {"adult": false, "backdrop_path": "/bQS43HSLZzMjZkcHJz4fGc7fNdz.jpg", "genre_ids": [Array], "id": 792307, "original_language": "en", "original_title": "Poor Things", "overview": "Brought back to life by an unorthodox scientist, a young woman runs off with a debauched lawyer on a whirlwind adventure across the continents. Free from the prejudices of her times, she grows steadfast in her purpose to stand for equality and liberation.", "popularity": 340.794, "poster_path": "/kCGlIMHnOm8JPXq3rXM6c5wMxcT.jpg", "release_date": "2023-12-07", "title": "Poor Things", "video": false, "vote_average": 8.1, "vote_count": 1329}, {"adult": false, "backdrop_path": "/bq9FpkTw9I3s1cSRuZxQibM2xOx.jpg", "genre_ids": [Array], "id": 467244, "original_language": "en", "original_title": "The Zone of Interest", "overview": "The commandant of Auschwitz, Rudolf Höss, and his wife Hedwig, strive to build a dream life for their family in a house and garden next to the camp.", "popularity": 367.598, "poster_path": "/AbFtI353N2Pggl5TxfsI2VtpUt8.jpg", "release_date": "2023-12-15", "title": "The Zone of Interest", "video": false, "vote_average": 7.341, "vote_count": 323}], "total_pages": 177, "total_results": 3540} Data